datapath.vcd
$date
	Sat Nov 21 17:51:37 2020
$end
$version
	Icarus Verilog
$end
$timescale
	100ps
$end
$scope module testbench $end
$var wire 5 ! ReadReg1 [4:0] $end
$var wire 5 " ReadReg2 [4:0] $end
$var wire 5 # RegWrite [4:0] $end
$var wire 32 $ instruction [31:0] $end
$var wire 64 % PC [63:0] $end
$var wire 64 & ALUResult [63:0] $end
$var reg 1 ' clk $end
$var reg 1 ( reset $end
$scope module Call $end
$var wire 1 ' clk $end
$var wire 1 ( reset $end
$var wire 64 ) signExtend [63:0] $end
$var wire 64 * shiftValue [63:0] $end
$var wire 64 + nextPC [63:0] $end
$var wire 64 , muxResult [63:0] $end
$var wire 64 - muxDataResult [63:0] $end
$var wire 32 . instruction [31:0] $end
$var wire 1 / Zero $end
$var wire 1 0 RegWrite $end
$var wire 64 1 ReadData2 [63:0] $end
$var wire 64 2 ReadData1 [63:0] $end
$var wire 64 3 ReadData [63:0] $end
$var wire 1 4 MemtoReg $end
$var wire 1 5 MemWrite $end
$var wire 1 6 MemRead $end
$var wire 1 7 Branch $end
$var wire 1 8 ANDResult $end
$var wire 1 9 ALUSrc $end
$var wire 64 : ALUResult [63:0] $end
$var wire 2 ; ALUOp [1:0] $end
$var wire 4 < ALUCtrl [3:0] $end
$scope module ALUControl $end
$var wire 3 = Funct3 [2:0] $end
$var wire 7 > Funct7 [6:0] $end
$var wire 2 ? ALUOp [1:0] $end
$var reg 4 @ ALUCtrl [3:0] $end
$upscope $end
$scope module ALUValues $end
$var wire 4 A ALUCtrl [3:0] $end
$var wire 64 B muxResult [63:0] $end
$var wire 64 C ReadData1 [63:0] $end
$var reg 64 D ALUResult [63:0] $end
$var reg 1 / Zero $end
$upscope $end
$scope module BranchAND $end
$var wire 1 / Zero $end
$var wire 1 7 Branch $end
$var reg 1 8 ANDResult $end
$upscope $end
$scope module Control_Values $end
$var wire 7 E OpCode [6:0] $end
$var reg 2 F ALUOp [1:0] $end
$var reg 1 9 ALUSrc $end
$var reg 1 7 Branch $end
$var reg 1 6 MemRead $end
$var reg 1 5 MemWrite $end
$var reg 1 4 MemtoReg $end
$var reg 1 0 RegWrite $end
$upscope $end
$scope module DataMemory $end
$var wire 64 G ALUResult [63:0] $end
$var wire 1 6 MemRead $end
$var wire 1 5 MemWrite $end
$var wire 1 ' clk $end
$var wire 1 ( reset $end
$var wire 64 H ReadData2 [63:0] $end
$var reg 64 I ReadData [63:0] $end
$upscope $end
$scope module ImmGen $end
$var wire 7 J OpCode [6:0] $end
$var wire 32 K instruction [31:0] $end
$var reg 64 L signExtend [63:0] $end
$upscope $end
$scope module ImmShiftedOneLeft $end
$var wire 64 M signExtend [63:0] $end
$var reg 64 N result [63:0] $end
$upscope $end
$scope module InstructionMemory $end
$var wire 64 O PC [63:0] $end
$var reg 32 P instruction [31:0] $end
$upscope $end
$scope module PC_Branch $end
$var wire 1 Q ANDBranch $end
$var wire 1 ' clk $end
$var wire 64 R shiftValue [63:0] $end
$var wire 64 S PC [63:0] $end
$var reg 64 T sum [63:0] $end
$upscope $end
$scope module Regs $end
$var wire 5 U ReadReg1 [4:0] $end
$var wire 5 V ReadReg2 [4:0] $end
$var wire 5 W RegWrite [4:0] $end
$var wire 1 0 WriteReg $end
$var wire 1 ' clk $end
$var wire 1 ( reset $end
$var wire 64 X WriteData [63:0] $end
$var reg 64 Y ReadData1 [63:0] $end
$var reg 64 Z ReadData2 [63:0] $end
$upscope $end
$scope module muxALU $end
$var wire 1 9 ALUSrc $end
$var wire 64 [ ReadData2 [63:0] $end
$var wire 64 \ signExtend [63:0] $end
$var reg 64 ] muxResult [63:0] $end
$upscope $end
$scope module muxDataMem $end
$var wire 64 ^ ALUResult [63:0] $end
$var wire 1 4 MemtoReg $end
$var wire 64 _ ReadData [63:0] $end
$var reg 64 ` muxDataResult [63:0] $end
$upscope $end
$upscope $end
$upscope $end
$enddefinitions $end
#0
$dumpvars
b0 `
bx _
b0 ^
b0 ]
b0 \
b1001 [
b1001 Z
b0 Y
b0 X
b1000 W
b10 V
b0 U
b0 T
b0 S
b0 R
0Q
b1000000111010000100011 P
b0 O
b0 N
b0 M
b0 L
b1000000111010000100011 K
b100011 J
bx I
b1001 H
b0 G
b0 F
b100011 E
b0 D
b0 C
b0 B
b10 A
b10 @
b0 ?
b0 >
b111 =
b10 <
b0 ;
b0 :
19
08
07
06
15
04
bx 3
b0 2
b1001 1
00
1/
b1000000111010000100011 .
b0 -
b0 ,
b0 +
b0 *
b0 )
x(
0'
b0 &
b0 %
b1000000111010000100011 $
bz #
bz "
bz !
$end
#100
b1001 3
b1001 I
b1001 _
b1001 -
b1001 X
b1001 `
b0 1
b0 H
b0 Z
b0 [
05
16
10
14
b11 =
b1 W
b1000 V
b11 J
b11 E
b100000000011000010000011 $
b100000000011000010000011 .
b100000000011000010000011 K
b100000000011000010000011 P
b100 %
b100 +
b100 O
b100 S
b100 T
1'
#200
0'
#300
0/
b1001 &
b1001 :
b1001 D
b1001 G
b1001 ^
b1001 -
b1001 X
b1001 `
b1001 2
b1001 C
b1001 Y
b10 ;
b10 ?
b10 F
06
04
09
b0 =
b10 W
b0 V
b1 U
b110011 J
b110011 E
b1000000100110011 $
b1000000100110011 .
b1000000100110011 K
b1000000100110011 P
b1000 %
b1000 +
b1000 O
b1000 S
b1000 T
1'
#400
0'
#500
b10010 -
b10010 X
b10010 `
b10010 &
b10010 :
b10010 D
b10010 G
b10010 ^
b1001 ,
b1001 B
b1001 ]
b1001 1
b1001 H
b1001 Z
b1001 [
b1 W
b10 V
b1000001000000010110011 $
b1000001000000010110011 .
b1000001000000010110011 K
b1000001000000010110011 P
b1100 %
b1100 +
b1100 O
b1100 S
b1100 T
1'
#600
0'
#700
b11011 -
b11011 X
b11011 `
b11011 &
b11011 :
b11011 D
b11011 G
b11011 ^
b10010 2
b10010 C
b10010 Y
b10000 %
b10000 +
b10000 O
b10000 S
b10000 T
1'
#800
0'
#900
b10010 -
b10010 X
b10010 `
b10010 &
b10010 :
b10010 D
b10010 G
b10010 ^
b110 <
b110 @
b110 A
b11011 2
b11011 C
b11011 Y
b100000 >
b1000000001000001000000010110011 $
b1000000001000001000000010110011 .
b1000000001000001000000010110011 K
b1000000001000001000000010110011 P
b10100 %
b10100 +
b10100 O
b10100 S
b10100 T
1'
#1000
0'
#1100
b1001 -
b1001 X
b1001 `
b1001 &
b1001 :
b1001 D
b1001 G
b1001 ^
b10010 2
b10010 C
b10010 Y
b11000 %
b11000 +
b11000 O
b11000 S
b11000 T
1'
#1200
0'
#1300
18
1/
b0 -
b0 X
b0 `
b0 &
b0 :
b0 D
b0 G
b0 ^
b110 <
b110 @
b110 A
b1 ;
b1 ?
b1 F
17
00
b1001 2
b1001 C
b1001 Y
b0 >
b1100 W
b1100111 J
b1100111 E
b1000001000011001100111 $
b1000001000011001100111 .
b1000001000011001100111 K
b1000001000011001100111 P
b11100 %
b11100 +
b11100 O
b11100 S
b11100 T
1'
#1400
0'
#1500
0/
b10010 -
b10010 X
b10010 `
b10010 &
b10010 :
b10010 D
b10010 G
b10010 ^
b10 <
b10 @
b10 A
08
b10 ;
b10 ?
b10 F
07
10
b1 W
b1 V
b110011 J
b110011 E
b100001000000010110011 $
b100001000000010110011 .
b100001000000010110011 K
b100001000000010110011 P
b100000 %
b100000 +
b100000 O
b100000 S
b100000 T
1'
#1600
0'
#1700
1/
b0 -
b0 X
b0 `
b0 ,
b0 B
b0 ]
b0 &
b0 :
b0 D
b0 G
b0 ^
b10 <
b10 @
b10 A
b0 ;
b0 ?
b0 F
15
00
19
b10010 1
b10010 H
b10010 Z
b10010 [
b0 2
b0 C
b0 Y
b111 =
b0 W
b0 U
b100011 J
b100011 E
b100000111000000100011 $
b100000111000000100011 .
b100000111000000100011 K
b100000111000000100011 P
b100100 %
b100100 +
b100100 O
b100100 S
b100100 T
1'
#1800
0'
#1900
b0 -
b0 X
b0 `
1/
b0 &
b0 :
b0 D
b0 G
b0 ^
b0 <
b0 @
b0 A
b1001 ,
b1001 B
b1001 ]
b1001 1
b1001 H
b1001 Z
b1001 [
b10010 2
b10010 C
b10010 Y
b10 ;
b10 ?
b10 F
05
10
09
b1 W
b10 V
b1 U
b110011 J
b110011 E
b1000001111000010110011 $
b1000001111000010110011 .
b1000001111000010110011 K
b1000001111000010110011 P
b101000 %
b101000 +
b101000 O
b101000 S
b101000 T
1'
#2000
0'
#2100
1/
b0 -
b0 X
b0 `
b0 ,
b0 B
b0 ]
b0 &
b0 :
b0 D
b0 G
b0 ^
b1 <
b1 @
b1 A
b0 1
b0 H
b0 Z
b0 [
b0 2
b0 C
b0 Y
b110 =
b0 V
b1110000010110011 $
b1110000010110011 .
b1110000010110011 K
b1110000010110011 P
b101100 %
b101100 +
b101100 O
b101100 S
b101100 T
1'
#2200
0'
#2300
b10 <
b10 @
b10 A
b0 ;
b0 ?
b0 F
15
00
19
b111 =
b0 W
b1 V
b0 U
b100011 J
b100011 E
b100000111000000100011 $
b100000111000000100011 .
b100000111000000100011 K
b100000111000000100011 P
b110000 %
b110000 +
b110000 O
b110000 S
b110000 T
1'
#2400
0'
#2500
0/
bx -
bx X
bx `
bx &
bx :
bx D
bx G
bx ^
bx 1
bx H
bx Z
bx [
bx 2
bx C
bx Y
bx =
bx >
bx W
bx V
bx U
bx J
bx E
bx $
bx .
bx K
bx P
b110100 %
b110100 +
b110100 O
b110100 S
b110100 T
1'
#2600
0'
#2700
b111000 %
b111000 +
b111000 O
b111000 S
b111000 T
1'
#2800
0'
#2900
b111100 %
b111100 +
b111100 O
b111100 S
b111100 T
1'
#3000
0'
#3100
b1000000 %
b1000000 +
b1000000 O
b1000000 S
b1000000 T
1'
#3200
0'
#3300
b1000100 %
b1000100 +
b1000100 O
b1000100 S
b1000100 T
1'
#3400
0'
#3500
b1001000 %
b1001000 +
b1001000 O
b1001000 S
b1001000 T
1'
#3600
0'
#3700
b1001100 %
b1001100 +
b1001100 O
b1001100 S
b1001100 T
1'
#3800
0'
#3900
b1010000 %
b1010000 +
b1010000 O
b1010000 S
b1010000 T
1'
#4000
0'
#4100
b1010100 %
b1010100 +
b1010100 O
b1010100 S
b1010100 T
1'
#4200
0'
#4300
b1011000 %
b1011000 +
b1011000 O
b1011000 S
b1011000 T
1'
#4400
0'
#4500
b1011100 %
b1011100 +
b1011100 O
b1011100 S
b1011100 T
1'
#4600
0'
#4700
b1100000 %
b1100000 +
b1100000 O
b1100000 S
b1100000 T
1'
#4800
0'
#4900
b1100100 %
b1100100 +
b1100100 O
b1100100 S
b1100100 T
1'
#5000
0'
#5100
b1101000 %
b1101000 +
b1101000 O
b1101000 S
b1101000 T
1'
#5200
0'
#5300
b1101100 %
b1101100 +
b1101100 O
b1101100 S
b1101100 T
1'
#5400
0'
#5500
b1110000 %
b1110000 +
b1110000 O
b1110000 S
b1110000 T
1'
#5600
0'
#5700
b1110100 %
b1110100 +
b1110100 O
b1110100 S
b1110100 T
1'
#5800
0'
#5900
b1111000 %
b1111000 +
b1111000 O
b1111000 S
b1111000 T
1'
#6000
0'
#6100
b1111100 %
b1111100 +
b1111100 O
b1111100 S
b1111100 T
1'
#6200
0'
#6300
b10000000 %
b10000000 +
b10000000 O
b10000000 S
b10000000 T
1'
#6400
0'
#6500
b10000100 %
b10000100 +
b10000100 O
b10000100 S
b10000100 T
1'
#6600
0'
#6700
b10001000 %
b10001000 +
b10001000 O
b10001000 S
b10001000 T
1'
#6800
0'
#6900
b10001100 %
b10001100 +
b10001100 O
b10001100 S
b10001100 T
1'
#7000
0'
#7100
b10010000 %
b10010000 +
b10010000 O
b10010000 S
b10010000 T
1'
#7200
0'
#7300
b10010100 %
b10010100 +
b10010100 O
b10010100 S
b10010100 T
1'
#7400
0'
#7500
b10011000 %
b10011000 +
b10011000 O
b10011000 S
b10011000 T
1'
#7600
0'
#7700
b10011100 %
b10011100 +
b10011100 O
b10011100 S
b10011100 T
1'
#7800
0'
#7900
b10100000 %
b10100000 +
b10100000 O
b10100000 S
b10100000 T
1'
#8000
0'
#8100
b10100100 %
b10100100 +
b10100100 O
b10100100 S
b10100100 T
1'
#8200
0'
#8300
b10101000 %
b10101000 +
b10101000 O
b10101000 S
b10101000 T
1'
#8400
0'
#8500
b10101100 %
b10101100 +
b10101100 O
b10101100 S
b10101100 T
1'
#8600
0'
#8700
b10110000 %
b10110000 +
b10110000 O
b10110000 S
b10110000 T
1'
#8800
0'
#8900
b10110100 %
b10110100 +
b10110100 O
b10110100 S
b10110100 T
1'
#9000
0'
#9100
b10111000 %
b10111000 +
b10111000 O
b10111000 S
b10111000 T
1'
#9200
0'
#9300
b10111100 %
b10111100 +
b10111100 O
b10111100 S
b10111100 T
1'
#9400
0'
#9500
b11000000 %
b11000000 +
b11000000 O
b11000000 S
b11000000 T
1'
#9600
0'
#9700
b11000100 %
b11000100 +
b11000100 O
b11000100 S
b11000100 T
1'
#9800
0'
#9900
b11001000 %
b11001000 +
b11001000 O
b11001000 S
b11001000 T
1'
#10000
0'
#10100
b11001100 %
b11001100 +
b11001100 O
b11001100 S
b11001100 T
1'
#10200
0'
#10300
b11010000 %
b11010000 +
b11010000 O
b11010000 S
b11010000 T
1'
#10400
0'
#10500
b11010100 %
b11010100 +
b11010100 O
b11010100 S
b11010100 T
1'
#10600
0'
#10700
b11011000 %
b11011000 +
b11011000 O
b11011000 S
b11011000 T
1'
#10800
0'
#10900
b11011100 %
b11011100 +
b11011100 O
b11011100 S
b11011100 T
1'
#11000
0'
#11100
b11100000 %
b11100000 +
b11100000 O
b11100000 S
b11100000 T
1'
#11200
0'
#11300
b11100100 %
b11100100 +
b11100100 O
b11100100 S
b11100100 T
1'
#11400
0'
#11500
b11101000 %
b11101000 +
b11101000 O
b11101000 S
b11101000 T
1'
#11600
0'
#11700
b11101100 %
b11101100 +
b11101100 O
b11101100 S
b11101100 T
1'
#11800
0'
#11900
b11110000 %
b11110000 +
b11110000 O
b11110000 S
b11110000 T
1'
#12000
0'
#12100
b11110100 %
b11110100 +
b11110100 O
b11110100 S
b11110100 T
1'
#12200
0'
#12300
b11111000 %
b11111000 +
b11111000 O
b11111000 S
b11111000 T
1'
#12400
0'
#12500
b11111100 %
b11111100 +
b11111100 O
b11111100 S
b11111100 T
1'
#12600
0'
#12700
b100000000 %
b100000000 +
b100000000 O
b100000000 S
b100000000 T
1'
#12800
0'
#12900
b100000100 %
b100000100 +
b100000100 O
b100000100 S
b100000100 T
1'
#13000
0'
#13100
b100001000 %
b100001000 +
b100001000 O
b100001000 S
b100001000 T
1'
#13200
0'
#13300
b100001100 %
b100001100 +
b100001100 O
b100001100 S
b100001100 T
1'
#13400
0'
#13500
b100010000 %
b100010000 +
b100010000 O
b100010000 S
b100010000 T
1'
#13600
0'
#13700
b100010100 %
b100010100 +
b100010100 O
b100010100 S
b100010100 T
1'
#13800
0'
#13900
b100011000 %
b100011000 +
b100011000 O
b100011000 S
b100011000 T
1'
#14000
0'
#14100
b100011100 %
b100011100 +
b100011100 O
b100011100 S
b100011100 T
1'
#14200
0'
#14300
b100100000 %
b100100000 +
b100100000 O
b100100000 S
b100100000 T
1'
#14400
0'
#14500
b100100100 %
b100100100 +
b100100100 O
b100100100 S
b100100100 T
1'
#14600
0'
#14700
b100101000 %
b100101000 +
b100101000 O
b100101000 S
b100101000 T
1'
#14800
0'
#14900
b100101100 %
b100101100 +
b100101100 O
b100101100 S
b100101100 T
1'
#15000
0'
#15100
b100110000 %
b100110000 +
b100110000 O
b100110000 S
b100110000 T
1'
#15200
0'
#15300
b100110100 %
b100110100 +
b100110100 O
b100110100 S
b100110100 T
1'
#15400
0'
#15500
b100111000 %
b100111000 +
b100111000 O
b100111000 S
b100111000 T
1'
#15600
0'
#15700
b100111100 %
b100111100 +
b100111100 O
b100111100 S
b100111100 T
1'
#15800
0'
#15900
b101000000 %
b101000000 +
b101000000 O
b101000000 S
b101000000 T
1'
#16000
0'
#16100
b101000100 %
b101000100 +
b101000100 O
b101000100 S
b101000100 T
1'
#16200
0'
#16300
b101001000 %
b101001000 +
b101001000 O
b101001000 S
b101001000 T
1'
#16400
0'
#16500
b101001100 %
b101001100 +
b101001100 O
b101001100 S
b101001100 T
1'
#16600
0'
#16700
b101010000 %
b101010000 +
b101010000 O
b101010000 S
b101010000 T
1'
#16800
0'
#16900
b101010100 %
b101010100 +
b101010100 O
b101010100 S
b101010100 T
1'
#17000
0'
#17100
b101011000 %
b101011000 +
b101011000 O
b101011000 S
b101011000 T
1'
#17200
0'
#17300
b101011100 %
b101011100 +
b101011100 O
b101011100 S
b101011100 T
1'
#17400
0'
#17500
b101100000 %
b101100000 +
b101100000 O
b101100000 S
b101100000 T
1'
#17600
0'
#17700
b101100100 %
b101100100 +
b101100100 O
b101100100 S
b101100100 T
1'
#17800
0'
#17900
b101101000 %
b101101000 +
b101101000 O
b101101000 S
b101101000 T
1'
#18000
0'
#18100
b101101100 %
b101101100 +
b101101100 O
b101101100 S
b101101100 T
1'
#18200
0'
#18300
b101110000 %
b101110000 +
b101110000 O
b101110000 S
b101110000 T
1'
#18400
0'
#18500
b101110100 %
b101110100 +
b101110100 O
b101110100 S
b101110100 T
1'
#18600
0'
#18700
b101111000 %
b101111000 +
b101111000 O
b101111000 S
b101111000 T
1'
#18800
0'
#18900
b101111100 %
b101111100 +
b101111100 O
b101111100 S
b101111100 T
1'
#19000
0'
#19100
b110000000 %
b110000000 +
b110000000 O
b110000000 S
b110000000 T
1'
#19200
0'
#19300
b110000100 %
b110000100 +
b110000100 O
b110000100 S
b110000100 T
1'
#19400
0'
#19500
b110001000 %
b110001000 +
b110001000 O
b110001000 S
b110001000 T
1'
#19600
0'
#19700
b110001100 %
b110001100 +
b110001100 O
b110001100 S
b110001100 T
1'
#19800
0'
#19900
b110010000 %
b110010000 +
b110010000 O
b110010000 S
b110010000 T
1'
#20000
0'
#20100
b110010100 %
b110010100 +
b110010100 O
b110010100 S
b110010100 T
1'
#20200
0'
#20300
b110011000 %
b110011000 +
b110011000 O
b110011000 S
b110011000 T
1'
#20400
0'
#20500
b110011100 %
b110011100 +
b110011100 O
b110011100 S
b110011100 T
1'
#20600
0'
#20700
b110100000 %
b110100000 +
b110100000 O
b110100000 S
b110100000 T
1'
#20800
0'
#20900
b110100100 %
b110100100 +
b110100100 O
b110100100 S
b110100100 T
1'
#21000
0'
#21100
b110101000 %
b110101000 +
b110101000 O
b110101000 S
b110101000 T
1'
#21200
0'
#21300
b110101100 %
b110101100 +
b110101100 O
b110101100 S
b110101100 T
1'
#21400
0'
#21500
b110110000 %
b110110000 +
b110110000 O
b110110000 S
b110110000 T
1'
#21600
0'
#21700
b110110100 %
b110110100 +
b110110100 O
b110110100 S
b110110100 T
1'
#21800
0'
#21900
b110111000 %
b110111000 +
b110111000 O
b110111000 S
b110111000 T
1'
#22000
0'
#22100
b110111100 %
b110111100 +
b110111100 O
b110111100 S
b110111100 T
1'
#22200
0'
#22300
b111000000 %
b111000000 +
b111000000 O
b111000000 S
b111000000 T
1'
#22400
0'
#22500
b111000100 %
b111000100 +
b111000100 O
b111000100 S
b111000100 T
1'
#22600
0'
#22700
b111001000 %
b111001000 +
b111001000 O
b111001000 S
b111001000 T
1'
#22800
0'
#22900
b111001100 %
b111001100 +
b111001100 O
b111001100 S
b111001100 T
1'
#23000
0'
#23100
b111010000 %
b111010000 +
b111010000 O
b111010000 S
b111010000 T
1'
#23200
0'
#23300
b111010100 %
b111010100 +
b111010100 O
b111010100 S
b111010100 T
1'
#23400
0'
#23500
b111011000 %
b111011000 +
b111011000 O
b111011000 S
b111011000 T
1'
#23600
0'
#23700
b111011100 %
b111011100 +
b111011100 O
b111011100 S
b111011100 T
1'
#23800
0'
#23900
b111100000 %
b111100000 +
b111100000 O
b111100000 S
b111100000 T
1'
#24000
0'
#24100
b111100100 %
b111100100 +
b111100100 O
b111100100 S
b111100100 T
1'
#24200
0'
#24300
b111101000 %
b111101000 +
b111101000 O
b111101000 S
b111101000 T
1'
#24400
0'
#24500
b111101100 %
b111101100 +
b111101100 O
b111101100 S
b111101100 T
1'
#24600
0'
#24700
b111110000 %
b111110000 +
b111110000 O
b111110000 S
b111110000 T
1'
#24800
0'
#24900
b111110100 %
b111110100 +
b111110100 O
b111110100 S
b111110100 T
1'
#25000
0'
#25100
b111111000 %
b111111000 +
b111111000 O
b111111000 S
b111111000 T
1'
#25200
0'
#25300
b111111100 %
b111111100 +
b111111100 O
b111111100 S
b111111100 T
1'
#25400
0'
#25500
b1000000000 %
b1000000000 +
b1000000000 O
b1000000000 S
b1000000000 T
1'
#25600
0'
#25700
b1000000100 %
b1000000100 +
b1000000100 O
b1000000100 S
b1000000100 T
1'
#25800
0'
#25900
b1000001000 %
b1000001000 +
b1000001000 O
b1000001000 S
b1000001000 T
1'
#26000
0'
#26100
b1000001100 %
b1000001100 +
b1000001100 O
b1000001100 S
b1000001100 T
1'
#26200
0'
#26300
b1000010000 %
b1000010000 +
b1000010000 O
b1000010000 S
b1000010000 T
1'
#26400
0'
#26500
b1000010100 %
b1000010100 +
b1000010100 O
b1000010100 S
b1000010100 T
1'
#26600
0'
#26700
b1000011000 %
b1000011000 +
b1000011000 O
b1000011000 S
b1000011000 T
1'
#26800
0'
#26900
b1000011100 %
b1000011100 +
b1000011100 O
b1000011100 S
b1000011100 T
1'
#27000
0'
#27100
b1000100000 %
b1000100000 +
b1000100000 O
b1000100000 S
b1000100000 T
1'
#27200
0'
#27300
b1000100100 %
b1000100100 +
b1000100100 O
b1000100100 S
b1000100100 T
1'
#27400
0'
#27500
b1000101000 %
b1000101000 +
b1000101000 O
b1000101000 S
b1000101000 T
1'
#27600
0'
#27700
b1000101100 %
b1000101100 +
b1000101100 O
b1000101100 S
b1000101100 T
1'
#27800
0'
#27900
b1000110000 %
b1000110000 +
b1000110000 O
b1000110000 S
b1000110000 T
1'
#28000
0'
#28100
b1000110100 %
b1000110100 +
b1000110100 O
b1000110100 S
b1000110100 T
1'
#28200
0'
#28300
b1000111000 %
b1000111000 +
b1000111000 O
b1000111000 S
b1000111000 T
1'
#28400
0'
#28500
b1000111100 %
b1000111100 +
b1000111100 O
b1000111100 S
b1000111100 T
1'
#28600
0'
#28700
b1001000000 %
b1001000000 +
b1001000000 O
b1001000000 S
b1001000000 T
1'
#28800
0'
#28900
b1001000100 %
b1001000100 +
b1001000100 O
b1001000100 S
b1001000100 T
1'
#29000
0'
#29100
b1001001000 %
b1001001000 +
b1001001000 O
b1001001000 S
b1001001000 T
1'
#29200
0'
#29300
b1001001100 %
b1001001100 +
b1001001100 O
b1001001100 S
b1001001100 T
1'
#29400
0'
#29500
b1001010000 %
b1001010000 +
b1001010000 O
b1001010000 S
b1001010000 T
1'
#29600
0'
#29700
b1001010100 %
b1001010100 +
b1001010100 O
b1001010100 S
b1001010100 T
1'
#29800
0'
#29900
b1001011000 %
b1001011000 +
b1001011000 O
b1001011000 S
b1001011000 T
1'
#30000
0'
#30100
b1001011100 %
b1001011100 +
b1001011100 O
b1001011100 S
b1001011100 T
1'
#30200
0'
#30300
b1001100000 %
b1001100000 +
b1001100000 O
b1001100000 S
b1001100000 T
1'
#30400
0'
#30500
b1001100100 %
b1001100100 +
b1001100100 O
b1001100100 S
b1001100100 T
1'
#30600
0'
#30700
b1001101000 %
b1001101000 +
b1001101000 O
b1001101000 S
b1001101000 T
1'
#30800
0'
#30900
b1001101100 %
b1001101100 +
b1001101100 O
b1001101100 S
b1001101100 T
1'
#31000
0'
#31100
b1001110000 %
b1001110000 +
b1001110000 O
b1001110000 S
b1001110000 T
1'
#31200
0'
#31300
b1001110100 %
b1001110100 +
b1001110100 O
b1001110100 S
b1001110100 T
1'
#31400
0'
#31500
b1001111000 %
b1001111000 +
b1001111000 O
b1001111000 S
b1001111000 T
1'
#31600
0'
#31700
b1001111100 %
b1001111100 +
b1001111100 O
b1001111100 S
b1001111100 T
1'
#31800
0'
#31900
b1010000000 %
b1010000000 +
b1010000000 O
b1010000000 S
b1010000000 T
1'
#32000
0'
#32100
b1010000100 %
b1010000100 +
b1010000100 O
b1010000100 S
b1010000100 T
1'
#32200
0'
#32300
b1010001000 %
b1010001000 +
b1010001000 O
b1010001000 S
b1010001000 T
1'
#32400
0'
#32500
b1010001100 %
b1010001100 +
b1010001100 O
b1010001100 S
b1010001100 T
1'
#32600
0'
#32700
b1010010000 %
b1010010000 +
b1010010000 O
b1010010000 S
b1010010000 T
1'
#32800
0'
#32900
b1010010100 %
b1010010100 +
b1010010100 O
b1010010100 S
b1010010100 T
1'
#33000
0'
#33100
b1010011000 %
b1010011000 +
b1010011000 O
b1010011000 S
b1010011000 T
1'
#33200
0'
#33300
b1010011100 %
b1010011100 +
b1010011100 O
b1010011100 S
b1010011100 T
1'
#33400
0'
#33500
b1010100000 %
b1010100000 +
b1010100000 O
b1010100000 S
b1010100000 T
1'
#33600
0'
#33700
b1010100100 %
b1010100100 +
b1010100100 O
b1010100100 S
b1010100100 T
1'
#33800
0'
#33900
b1010101000 %
b1010101000 +
b1010101000 O
b1010101000 S
b1010101000 T
1'
#34000
0'
#34100
b1010101100 %
b1010101100 +
b1010101100 O
b1010101100 S
b1010101100 T
1'
#34200
0'
#34300
b1010110000 %
b1010110000 +
b1010110000 O
b1010110000 S
b1010110000 T
1'
#34400
0'
#34500
b1010110100 %
b1010110100 +
b1010110100 O
b1010110100 S
b1010110100 T
1'
#34600
0'
#34700
b1010111000 %
b1010111000 +
b1010111000 O
b1010111000 S
b1010111000 T
1'
#34800
0'
#34900
b1010111100 %
b1010111100 +
b1010111100 O
b1010111100 S
b1010111100 T
1'
#35000
0'
#35100
b1011000000 %
b1011000000 +
b1011000000 O
b1011000000 S
b1011000000 T
1'
#35200
0'
#35300
b1011000100 %
b1011000100 +
b1011000100 O
b1011000100 S
b1011000100 T
1'
#35400
0'
#35500
b1011001000 %
b1011001000 +
b1011001000 O
b1011001000 S
b1011001000 T
1'
#35600
0'
#35700
b1011001100 %
b1011001100 +
b1011001100 O
b1011001100 S
b1011001100 T
1'
#35800
0'
#35900
b1011010000 %
b1011010000 +
b1011010000 O
b1011010000 S
b1011010000 T
1'
#36000
0'
#36100
b1011010100 %
b1011010100 +
b1011010100 O
b1011010100 S
b1011010100 T
1'
#36200
0'
#36300
b1011011000 %
b1011011000 +
b1011011000 O
b1011011000 S
b1011011000 T
1'
#36400
0'
#36500
b1011011100 %
b1011011100 +
b1011011100 O
b1011011100 S
b1011011100 T
1'
#36600
0'
#36700
b1011100000 %
b1011100000 +
b1011100000 O
b1011100000 S
b1011100000 T
1'
#36800
0'
#36900
b1011100100 %
b1011100100 +
b1011100100 O
b1011100100 S
b1011100100 T
1'
#37000
0'
#37100
b1011101000 %
b1011101000 +
b1011101000 O
b1011101000 S
b1011101000 T
1'
#37200
0'
#37300
b1011101100 %
b1011101100 +
b1011101100 O
b1011101100 S
b1011101100 T
1'
#37400
0'
#37500
b1011110000 %
b1011110000 +
b1011110000 O
b1011110000 S
b1011110000 T
1'
#37600
0'
#37700
b1011110100 %
b1011110100 +
b1011110100 O
b1011110100 S
b1011110100 T
1'
#37800
0'
#37900
b1011111000 %
b1011111000 +
b1011111000 O
b1011111000 S
b1011111000 T
1'
#38000
0'
#38100
b1011111100 %
b1011111100 +
b1011111100 O
b1011111100 S
b1011111100 T
1'
#38200
0'
#38300
b1100000000 %
b1100000000 +
b1100000000 O
b1100000000 S
b1100000000 T
1'
#38400
0'
#38500
b1100000100 %
b1100000100 +
b1100000100 O
b1100000100 S
b1100000100 T
1'
#38600
0'
#38700
b1100001000 %
b1100001000 +
b1100001000 O
b1100001000 S
b1100001000 T
1'
#38800
0'
#38900
b1100001100 %
b1100001100 +
b1100001100 O
b1100001100 S
b1100001100 T
1'
#39000
0'
#39100
b1100010000 %
b1100010000 +
b1100010000 O
b1100010000 S
b1100010000 T
1'
#39200
0'
#39300
b1100010100 %
b1100010100 +
b1100010100 O
b1100010100 S
b1100010100 T
1'
#39400
0'
#39500
b1100011000 %
b1100011000 +
b1100011000 O
b1100011000 S
b1100011000 T
1'
#39600
0'
#39700
b1100011100 %
b1100011100 +
b1100011100 O
b1100011100 S
b1100011100 T
1'
#39800
0'
#39900
b1100100000 %
b1100100000 +
b1100100000 O
b1100100000 S
b1100100000 T
1'
#40000
0'
#40100
b1100100100 %
b1100100100 +
b1100100100 O
b1100100100 S
b1100100100 T
1'
#40200
0'
#40300
b1100101000 %
b1100101000 +
b1100101000 O
b1100101000 S
b1100101000 T
1'
#40400
0'
#40500
b1100101100 %
b1100101100 +
b1100101100 O
b1100101100 S
b1100101100 T
1'
#40600
0'
#40700
b1100110000 %
b1100110000 +
b1100110000 O
b1100110000 S
b1100110000 T
1'
#40800
0'
#40900
b1100110100 %
b1100110100 +
b1100110100 O
b1100110100 S
b1100110100 T
1'
#41000
0'
#41100
b1100111000 %
b1100111000 +
b1100111000 O
b1100111000 S
b1100111000 T
1'
#41200
0'
#41300
b1100111100 %
b1100111100 +
b1100111100 O
b1100111100 S
b1100111100 T
1'
#41400
0'
#41500
b1101000000 %
b1101000000 +
b1101000000 O
b1101000000 S
b1101000000 T
1'
#41600
0'
#41700
b1101000100 %
b1101000100 +
b1101000100 O
b1101000100 S
b1101000100 T
1'
#41800
0'
#41900
b1101001000 %
b1101001000 +
b1101001000 O
b1101001000 S
b1101001000 T
1'
#42000
0'
#42100
b1101001100 %
b1101001100 +
b1101001100 O
b1101001100 S
b1101001100 T
1'
#42200
0'
#42300
b1101010000 %
b1101010000 +
b1101010000 O
b1101010000 S
b1101010000 T
1'
#42400
0'
#42500
b1101010100 %
b1101010100 +
b1101010100 O
b1101010100 S
b1101010100 T
1'
#42600
0'
